Solutions: R-Census-Data-Challenges
…
# display the ggplot
ca_fam_size

## # A tibble: 58 x 4
##    GEOID NAME                            variable value
##    <chr> <chr>                           <chr>    <dbl>
##  1 06011 Colusa County, California       P037001   3.5 
##  2 06007 Butte County, California        P037001   2.99
##  3 06001 Alameda County, California      P037001   3.3 
##  4 06003 Alpine County, California       P037001   2.92
##  5 06005 Amador County, California       P037001   2.75
##  6 06009 Calaveras County, California    P037001   2.81
##  7 06013 Contra Costa County, California P037001   3.26
##  8 06015 Del Norte County, California    P037001   3.05
##  9 06031 Kings County, California        P037001   3.59
## 10 06021 Glenn County, California        P037001   3.32
## #  with 48 more rows
…
